<svg xmlns="http://www.w3.org/2000/svg" viewBox="1097.866 1417.046 45.134 61.649">
  <defs>
    <style>
      .cls-1 {
        fill: #1d3766;
      }
    </style>
  </defs>
  <g id="Group_1627" data-name="Group 1627" transform="translate(1097.832 1417.086)">
    <path id="Path_2902" data-name="Path 2902" class="cls-1" d="M36.234,61.609a2.245,2.245,0,0,1-.806-.153L2.78,48.688a2.224,2.224,0,0,1-1.389-2.32L2.6,36.157a.132.132,0,0,0-.083-.139l-.556-.167A2.172,2.172,0,0,1,.39,33.323l1.695-8.544a.114.114,0,0,0-.1-.139,2.219,2.219,0,0,1-1.709-2.6L1.9,14.095a.116.116,0,0,0-.083-.139l-.153-.042A2.216,2.216,0,0,1,.085,11.3l2.07-9.6A2.219,2.219,0,0,1,4.6-.021L43.264,5.245a2.213,2.213,0,0,1,1.9,2.181V58.594a2.218,2.218,0,0,1-1.945,2.2l-6.738.82ZM4.308,2.05a.133.133,0,0,0-.125.1l-2.07,9.6a.116.116,0,0,0,.083.139l.153.042a2.212,2.212,0,0,1,1.6,2.57L2.321,22.445a.135.135,0,0,0,.1.153,2.212,2.212,0,0,1,1.709,2.584L2.433,33.726a.116.116,0,0,0,.083.139l.556.167a2.21,2.21,0,0,1,1.584,2.376L3.447,46.618a.122.122,0,0,0,.083.125L36.179,59.511a.084.084,0,0,0,.056.014l6.738-.82a.134.134,0,0,0,.111-.125V7.426a.132.132,0,0,0-.111-.125L4.322,2.05Z" transform="translate(0 0)"/>
    <path id="Path_2903" data-name="Path 2903" class="cls-1" d="M46.094,251.892a.236.236,0,0,1-.1-.014l-37.15-10.6a.347.347,0,0,1,.195-.667l37.136,10.6a.351.351,0,0,1,.236.431A.338.338,0,0,1,46.094,251.892Z" transform="translate(-7.373 -207.205)"/>
    <path id="Path_2904" data-name="Path 2904" class="cls-1" d="M43.861,168.986a.176.176,0,0,1-.083-.014L6.114,160.331a.359.359,0,0,1-.264-.417.351.351,0,0,1,.417-.264l37.664,8.655a.359.359,0,0,1,.264.417A.355.355,0,0,1,43.861,168.986Z" transform="translate(-5.001 -137.497)"/>
    <path id="Path_2905" data-name="Path 2905" class="cls-1" d="M43.948,91.541h-.056L6.228,84.831a.346.346,0,0,1,.125-.681l37.664,6.7a.33.33,0,0,1,.278.4A.369.369,0,0,1,43.948,91.541Z" transform="translate(-5.088 -72.487)"/>
    <path id="Path_2906" data-name="Path 2906" class="cls-1" d="M264.221,57.183a.125.125,0,0,1-.069-.014.354.354,0,0,1-.278-.4l2.362-11.615a.346.346,0,0,1,.681.125l-2.362,11.615A.321.321,0,0,1,264.221,57.183Z" transform="translate(-227.181 -38.67)"/>
    <path id="Path_2907" data-name="Path 2907" class="cls-1" d="M261.121,144.939h-.069a.354.354,0,0,1-.278-.4l2.32-11.684a.346.346,0,1,1,.681.125l-2.32,11.684A.33.33,0,0,1,261.121,144.939Z" transform="translate(-224.512 -114.186)"/>
    <path id="Path_2908" data-name="Path 2908" class="cls-1" d="M261.8,235.271h-.069a.343.343,0,0,1-.278-.4l2.306-12.24a.346.346,0,1,1,.681.125l-2.306,12.24A.341.341,0,0,1,261.8,235.271Z" transform="translate(-225.091 -191.487)"/>
    <path id="Path_2909" data-name="Path 2909" class="cls-1" d="M257.823,332.992h-.056a.349.349,0,0,1-.292-.4l2.57-15.421a.352.352,0,0,1,.695.111l-2.57,15.421A.369.369,0,0,1,257.823,332.992Z" transform="translate(-221.672 -272.884)"/>
    <path id="Path_2910" data-name="Path 2910" class="cls-1" d="M281.725,150.452a.176.176,0,0,1-.083-.014l-1.751-.347a.422.422,0,0,1-.333-.486l1.751-8.892a.414.414,0,0,1,.82.083v9.239a.415.415,0,0,1-.153.32A.335.335,0,0,1,281.725,150.452Zm-1.264-1.084.847.167v-4.46Z" transform="translate(-240.683 -120.908)"/>
    <path id="Path_2911" data-name="Path 2911" class="cls-1" d="M284.321,73.393h-.069l-1.334-.208a.447.447,0,0,1-.278-.167.438.438,0,0,1-.069-.32l1.334-7.085a.414.414,0,0,1,.82.083V72.99a.452.452,0,0,1-.139.32A.427.427,0,0,1,284.321,73.393Zm-.847-.973.431.069V70.156Z" transform="translate(-243.279 -56.242)"/>
    <path id="Path_2912" data-name="Path 2912" class="cls-1" d="M282.907,242.484h-.069l-1.556-.25a.447.447,0,0,1-.278-.167.353.353,0,0,1-.069-.306l1.556-9.419a.424.424,0,0,1,.445-.347.413.413,0,0,1,.389.417v9.67a.415.415,0,0,1-.153.32A.539.539,0,0,1,282.907,242.484Zm-1.07-1.014.653.1V237.5Z" transform="translate(-241.865 -199.797)"/>
    <path id="Path_2913" data-name="Path 2913" class="cls-1" d="M278.9,334.654a.431.431,0,0,1-.306-.125.458.458,0,0,1-.111-.347l1.9-11.74a.424.424,0,0,1,.445-.347.413.413,0,0,1,.389.417v11.545a.432.432,0,0,1-.375.417l-1.9.194A.051.051,0,0,0,278.9,334.654Zm1.487-6.988-.986,6.1.986-.1Z" transform="translate(-239.762 -277.38)"/>
    <path id="Path_2914" data-name="Path 2914" class="cls-1" d="M25.228,247.82,23.7,260.407l.417-12.907Z" transform="translate(-20.378 -213.149)"/>
    <path id="Path_2915" data-name="Path 2915" class="cls-1" d="M18.237,165.1,16,176.37l.472-11.67Z" transform="translate(-13.748 -141.853)"/>
    <path id="Path_2916" data-name="Path 2916" class="cls-1" d="M16.134,90.117,13.8,101.37l.57-11.67Z" transform="translate(-11.854 -77.272)"/>
  </g>
</svg>
